%!PS-Adobe-3.0 EPSF-3.0
%%Creator: cairo 1.14.0 (http://cairographics.org)
%%CreationDate: Sat Jun 24 14:00:08 2017
%%Pages: 1
%%DocumentData: Clean7Bit
%%LanguageLevel: 2
%%BoundingBox: 0 -1 574 574
%%EndComments
%%BeginProlog
save
50 dict begin
/q { gsave } bind def
/Q { grestore } bind def
/cm { 6 array astore concat } bind def
/w { setlinewidth } bind def
/J { setlinecap } bind def
/j { setlinejoin } bind def
/M { setmiterlimit } bind def
/d { setdash } bind def
/m { moveto } bind def
/l { lineto } bind def
/c { curveto } bind def
/h { closepath } bind def
/re { exch dup neg 3 1 roll 5 3 roll moveto 0 rlineto
      0 exch rlineto 0 rlineto closepath } bind def
/S { stroke } bind def
/f { fill } bind def
/f* { eofill } bind def
/n { newpath } bind def
/W { clip } bind def
/W* { eoclip } bind def
/BT { } bind def
/ET { } bind def
/pdfmark where { pop globaldict /?pdfmark /exec load put }
    { globaldict begin /?pdfmark /pop load def /pdfmark
    /cleartomark load def end } ifelse
/BDC { mark 3 1 roll /BDC pdfmark } bind def
/EMC { mark /EMC pdfmark } bind def
/cairo_store_point { /cairo_point_y exch def /cairo_point_x exch def } def
/Tj { show currentpoint cairo_store_point } bind def
/TJ {
  {
    dup
    type /stringtype eq
    { show } { -0.001 mul 0 cairo_font_matrix dtransform rmoveto } ifelse
  } forall
  currentpoint cairo_store_point
} bind def
/cairo_selectfont { cairo_font_matrix aload pop pop pop 0 0 6 array astore
    cairo_font exch selectfont cairo_point_x cairo_point_y moveto } bind def
/Tf { pop /cairo_font exch def /cairo_font_matrix where
      { pop cairo_selectfont } if } bind def
/Td { matrix translate cairo_font_matrix matrix concatmatrix dup
      /cairo_font_matrix exch def dup 4 get exch 5 get cairo_store_point
      /cairo_font where { pop cairo_selectfont } if } bind def
/Tm { 2 copy 8 2 roll 6 array astore /cairo_font_matrix exch def
      cairo_store_point /cairo_font where { pop cairo_selectfont } if } bind def
/g { setgray } bind def
/rg { setrgbcolor } bind def
/d1 { setcachedevice } bind def
%%EndProlog
%%BeginSetup
%%EndSetup
%%Page: 1 1
%%BeginPageSetup
%%PageBoundingBox: 0 -1 574 574
%%EndPageSetup
q 0 -1 574 575 rectclip q
0.352941 g
4 2.001 m 4 3.102 3.105 4.001 2 4.001 c 0.895 4.001 0 3.102 0 2.001 c 0
 0.895 0.895 0.001 2 0.001 c 3.105 0.001 4 0.895 4 2.001 c f
55.754 2.001 m 55.754 3.102 54.855 4.001 53.754 4.001 c 52.648 4.001 51.754
 3.102 51.754 2.001 c 51.754 0.895 52.648 0.001 53.754 0.001 c 54.855 0.001
 55.754 0.895 55.754 2.001 c f
4 53.755 m 4 54.856 3.105 55.755 2 55.755 c 0.895 55.755 0 54.856 0 53.755
 c 0 52.649 0.895 51.755 2 51.755 c 3.105 51.755 4 52.649 4 53.755 c f
55.754 53.755 m 55.754 54.856 54.855 55.755 53.754 55.755 c 52.648 55.755
 51.754 54.856 51.754 53.755 c 51.754 52.649 52.648 51.755 53.754 51.755
 c 54.855 51.755 55.754 52.649 55.754 53.755 c f
469.777 2.001 m 469.777 3.102 468.883 4.001 467.777 4.001 c 466.676 4.001
 465.777 3.102 465.777 2.001 c 465.777 0.895 466.676 0.001 467.777 0.001
 c 468.883 0.001 469.777 0.895 469.777 2.001 c f
573.285 2.001 m 573.285 3.102 572.391 4.001 571.285 4.001 c 570.184 4.001
 569.285 3.102 569.285 2.001 c 569.285 0.895 570.184 0.001 571.285 0.001
 c 572.391 0.001 573.285 0.895 573.285 2.001 c f
573.285 571.286 m 573.285 572.391 572.391 573.286 571.285 573.286 c 570.184
 573.286 569.285 572.391 569.285 571.286 c 569.285 570.181 570.184 569.286
 571.285 569.286 c 572.391 569.286 573.285 570.181 573.285 571.286 c f
4 571.286 m 4 572.391 3.105 573.286 2 573.286 c 0.895 573.286 0 572.391
 0 571.286 c 0 570.181 0.895 569.286 2 569.286 c 3.105 569.286 4 570.181
 4 571.286 c f
4 467.778 m 4 468.884 3.105 469.778 2 469.778 c 0.895 469.778 0 468.884
 0 467.778 c 0 466.677 0.895 465.778 2 465.778 c 3.105 465.778 4 466.677
 4 467.778 c f
55.754 467.778 m 55.754 468.884 54.855 469.778 53.754 469.778 c 52.648 
469.778 51.754 468.884 51.754 467.778 c 51.754 466.677 52.648 465.778 53.754
 465.778 c 54.855 465.778 55.754 466.677 55.754 467.778 c f
107.508 467.778 m 107.508 468.884 106.609 469.778 105.508 469.778 c 104.402
 469.778 103.508 468.884 103.508 467.778 c 103.508 466.677 104.402 465.778
 105.508 465.778 c 106.609 465.778 107.508 466.677 107.508 467.778 c f
159.262 467.778 m 159.262 468.884 158.363 469.778 157.262 469.778 c 156.156
 469.778 155.262 468.884 155.262 467.778 c 155.262 466.677 156.156 465.778
 157.262 465.778 c 158.363 465.778 159.262 466.677 159.262 467.778 c f
211.012 467.778 m 211.012 468.884 210.117 469.778 209.012 469.778 c 207.91
 469.778 207.012 468.884 207.012 467.778 c 207.012 466.677 207.91 465.778
 209.012 465.778 c 210.117 465.778 211.012 466.677 211.012 467.778 c f
262.766 467.778 m 262.766 468.884 261.871 469.778 260.766 469.778 c 259.664
 469.778 258.766 468.884 258.766 467.778 c 258.766 466.677 259.664 465.778
 260.766 465.778 c 261.871 465.778 262.766 466.677 262.766 467.778 c f
314.52 467.778 m 314.52 468.884 313.621 469.778 312.52 469.778 c 311.414
 469.778 310.52 468.884 310.52 467.778 c 310.52 466.677 311.414 465.778 
312.52 465.778 c 313.621 465.778 314.52 466.677 314.52 467.778 c f
366.273 467.778 m 366.273 468.884 365.379 469.778 364.273 469.778 c 363.168
 469.778 362.273 468.884 362.273 467.778 c 362.273 466.677 363.168 465.778
 364.273 465.778 c 365.379 465.778 366.273 466.677 366.273 467.778 c f
366.273 416.024 m 366.273 417.13 365.379 418.024 364.273 418.024 c 363.168
 418.024 362.273 417.13 362.273 416.024 c 362.273 414.923 363.168 414.024
 364.273 414.024 c 365.379 414.024 366.273 414.923 366.273 416.024 c f
418.027 416.024 m 418.027 417.13 417.133 418.024 416.027 418.024 c 414.922
 418.024 414.027 417.13 414.027 416.024 c 414.027 414.923 414.922 414.024
 416.027 414.024 c 417.133 414.024 418.027 414.923 418.027 416.024 c f
418.027 364.274 m 418.027 365.376 417.133 366.274 416.027 366.274 c 414.922
 366.274 414.027 365.376 414.027 364.274 c 414.027 363.169 414.922 362.274
 416.027 362.274 c 417.133 362.274 418.027 363.169 418.027 364.274 c f
469.777 364.274 m 469.777 365.376 468.883 366.274 467.777 366.274 c 466.676
 366.274 465.777 365.376 465.777 364.274 c 465.777 363.169 466.676 362.274
 467.777 362.274 c 468.883 362.274 469.777 363.169 469.777 364.274 c f
469.777 312.52 m 469.777 313.622 468.883 314.52 467.777 314.52 c 466.676
 314.52 465.777 313.622 465.777 312.52 c 465.777 311.415 466.676 310.52 
467.777 310.52 c 468.883 310.52 469.777 311.415 469.777 312.52 c f
469.777 260.766 m 469.777 261.872 468.883 262.766 467.777 262.766 c 466.676
 262.766 465.777 261.872 465.777 260.766 c 465.777 259.665 466.676 258.766
 467.777 258.766 c 468.883 258.766 469.777 259.665 469.777 260.766 c f
469.777 209.013 m 469.777 210.118 468.883 211.013 467.777 211.013 c 466.676
 211.013 465.777 210.118 465.777 209.013 c 465.777 207.907 466.676 207.013
 467.777 207.013 c 468.883 207.013 469.777 207.907 469.777 209.013 c f
469.777 157.259 m 469.777 158.364 468.883 159.259 467.777 159.259 c 466.676
 159.259 465.777 158.364 465.777 157.259 c 465.777 156.157 466.676 155.259
 467.777 155.259 c 468.883 155.259 469.777 156.157 469.777 157.259 c f
469.777 105.509 m 469.777 106.61 468.883 107.509 467.777 107.509 c 466.676
 107.509 465.777 106.61 465.777 105.509 c 465.777 104.403 466.676 103.509
 467.777 103.509 c 468.883 103.509 469.777 104.403 469.777 105.509 c f
469.777 53.755 m 469.777 54.856 468.883 55.755 467.777 55.755 c 466.676
 55.755 465.777 54.856 465.777 53.755 c 465.777 52.649 466.676 51.755 467.777
 51.755 c 468.883 51.755 469.777 52.649 469.777 53.755 c f
107.508 2.001 m 107.508 3.102 106.609 4.001 105.508 4.001 c 104.402 4.001
 103.508 3.102 103.508 2.001 c 103.508 0.895 104.402 0.001 105.508 0.001
 c 106.609 0.001 107.508 0.895 107.508 2.001 c f
107.508 53.755 m 107.508 54.856 106.609 55.755 105.508 55.755 c 104.402
 55.755 103.508 54.856 103.508 53.755 c 103.508 52.649 104.402 51.755 105.508
 51.755 c 106.609 51.755 107.508 52.649 107.508 53.755 c f
159.262 2.001 m 159.262 3.102 158.363 4.001 157.262 4.001 c 156.156 4.001
 155.262 3.102 155.262 2.001 c 155.262 0.895 156.156 0.001 157.262 0.001
 c 158.363 0.001 159.262 0.895 159.262 2.001 c f
159.262 53.755 m 159.262 54.856 158.363 55.755 157.262 55.755 c 156.156
 55.755 155.262 54.856 155.262 53.755 c 155.262 52.649 156.156 51.755 157.262
 51.755 c 158.363 51.755 159.262 52.649 159.262 53.755 c f
211.012 2.001 m 211.012 3.102 210.117 4.001 209.012 4.001 c 207.91 4.001
 207.012 3.102 207.012 2.001 c 207.012 0.895 207.91 0.001 209.012 0.001 
c 210.117 0.001 211.012 0.895 211.012 2.001 c f
211.012 53.755 m 211.012 54.856 210.117 55.755 209.012 55.755 c 207.91 
55.755 207.012 54.856 207.012 53.755 c 207.012 52.649 207.91 51.755 209.012
 51.755 c 210.117 51.755 211.012 52.649 211.012 53.755 c f
262.766 2.001 m 262.766 3.102 261.871 4.001 260.766 4.001 c 259.664 4.001
 258.766 3.102 258.766 2.001 c 258.766 0.895 259.664 0.001 260.766 0.001
 c 261.871 0.001 262.766 0.895 262.766 2.001 c f
262.766 53.755 m 262.766 54.856 261.871 55.755 260.766 55.755 c 259.664
 55.755 258.766 54.856 258.766 53.755 c 258.766 52.649 259.664 51.755 260.766
 51.755 c 261.871 51.755 262.766 52.649 262.766 53.755 c f
314.52 2.001 m 314.52 3.102 313.621 4.001 312.52 4.001 c 311.414 4.001 
310.52 3.102 310.52 2.001 c 310.52 0.895 311.414 0.001 312.52 0.001 c 313.621
 0.001 314.52 0.895 314.52 2.001 c f
314.52 53.755 m 314.52 54.856 313.621 55.755 312.52 55.755 c 311.414 55.755
 310.52 54.856 310.52 53.755 c 310.52 52.649 311.414 51.755 312.52 51.755
 c 313.621 51.755 314.52 52.649 314.52 53.755 c f
366.273 2.001 m 366.273 3.102 365.379 4.001 364.273 4.001 c 363.168 4.001
 362.273 3.102 362.273 2.001 c 362.273 0.895 363.168 0.001 364.273 0.001
 c 365.379 0.001 366.273 0.895 366.273 2.001 c f
366.273 53.755 m 366.273 54.856 365.379 55.755 364.273 55.755 c 363.168
 55.755 362.273 54.856 362.273 53.755 c 362.273 52.649 363.168 51.755 364.273
 51.755 c 365.379 51.755 366.273 52.649 366.273 53.755 c f
418.027 2.001 m 418.027 3.102 417.133 4.001 416.027 4.001 c 414.922 4.001
 414.027 3.102 414.027 2.001 c 414.027 0.895 414.922 0.001 416.027 0.001
 c 417.133 0.001 418.027 0.895 418.027 2.001 c f
418.027 53.755 m 418.027 54.856 417.133 55.755 416.027 55.755 c 414.922
 55.755 414.027 54.856 414.027 53.755 c 414.027 52.649 414.922 51.755 416.027
 51.755 c 417.133 51.755 418.027 52.649 418.027 53.755 c f
55.754 105.509 m 55.754 106.61 54.855 107.509 53.754 107.509 c 52.648 107.509
 51.754 106.61 51.754 105.509 c 51.754 104.403 52.648 103.509 53.754 103.509
 c 54.855 103.509 55.754 104.403 55.754 105.509 c f
4 105.509 m 4 106.61 3.105 107.509 2 107.509 c 0.895 107.509 0 106.61 0
 105.509 c 0 104.403 0.895 103.509 2 103.509 c 3.105 103.509 4 104.403 4
 105.509 c f
107.508 105.509 m 107.508 106.61 106.609 107.509 105.508 107.509 c 104.402
 107.509 103.508 106.61 103.508 105.509 c 103.508 104.403 104.402 103.509
 105.508 103.509 c 106.609 103.509 107.508 104.403 107.508 105.509 c f
159.262 105.509 m 159.262 106.61 158.363 107.509 157.262 107.509 c 156.156
 107.509 155.262 106.61 155.262 105.509 c 155.262 104.403 156.156 103.509
 157.262 103.509 c 158.363 103.509 159.262 104.403 159.262 105.509 c f
211.012 105.509 m 211.012 106.61 210.117 107.509 209.012 107.509 c 207.91
 107.509 207.012 106.61 207.012 105.509 c 207.012 104.403 207.91 103.509
 209.012 103.509 c 210.117 103.509 211.012 104.403 211.012 105.509 c f
262.766 105.509 m 262.766 106.61 261.871 107.509 260.766 107.509 c 259.664
 107.509 258.766 106.61 258.766 105.509 c 258.766 104.403 259.664 103.509
 260.766 103.509 c 261.871 103.509 262.766 104.403 262.766 105.509 c f
314.52 105.509 m 314.52 106.61 313.621 107.509 312.52 107.509 c 311.414
 107.509 310.52 106.61 310.52 105.509 c 310.52 104.403 311.414 103.509 312.52
 103.509 c 313.621 103.509 314.52 104.403 314.52 105.509 c f
366.273 105.509 m 366.273 106.61 365.379 107.509 364.273 107.509 c 363.168
 107.509 362.273 106.61 362.273 105.509 c 362.273 104.403 363.168 103.509
 364.273 103.509 c 365.379 103.509 366.273 104.403 366.273 105.509 c f
418.027 105.509 m 418.027 106.61 417.133 107.509 416.027 107.509 c 414.922
 107.509 414.027 106.61 414.027 105.509 c 414.027 104.403 414.922 103.509
 416.027 103.509 c 417.133 103.509 418.027 104.403 418.027 105.509 c f
55.754 157.259 m 55.754 158.364 54.855 159.259 53.754 159.259 c 52.648 
159.259 51.754 158.364 51.754 157.259 c 51.754 156.157 52.648 155.259 53.754
 155.259 c 54.855 155.259 55.754 156.157 55.754 157.259 c f
4 157.259 m 4 158.364 3.105 159.259 2 159.259 c 0.895 159.259 0 158.364
 0 157.259 c 0 156.157 0.895 155.259 2 155.259 c 3.105 155.259 4 156.157
 4 157.259 c f
107.508 157.259 m 107.508 158.364 106.609 159.259 105.508 159.259 c 104.402
 159.259 103.508 158.364 103.508 157.259 c 103.508 156.157 104.402 155.259
 105.508 155.259 c 106.609 155.259 107.508 156.157 107.508 157.259 c f
159.262 157.259 m 159.262 158.364 158.363 159.259 157.262 159.259 c 156.156
 159.259 155.262 158.364 155.262 157.259 c 155.262 156.157 156.156 155.259
 157.262 155.259 c 158.363 155.259 159.262 156.157 159.262 157.259 c f
211.012 157.259 m 211.012 158.364 210.117 159.259 209.012 159.259 c 207.91
 159.259 207.012 158.364 207.012 157.259 c 207.012 156.157 207.91 155.259
 209.012 155.259 c 210.117 155.259 211.012 156.157 211.012 157.259 c f
262.766 157.259 m 262.766 158.364 261.871 159.259 260.766 159.259 c 259.664
 159.259 258.766 158.364 258.766 157.259 c 258.766 156.157 259.664 155.259
 260.766 155.259 c 261.871 155.259 262.766 156.157 262.766 157.259 c f
314.52 157.259 m 314.52 158.364 313.621 159.259 312.52 159.259 c 311.414
 159.259 310.52 158.364 310.52 157.259 c 310.52 156.157 311.414 155.259 
312.52 155.259 c 313.621 155.259 314.52 156.157 314.52 157.259 c f
366.273 157.259 m 366.273 158.364 365.379 159.259 364.273 159.259 c 363.168
 159.259 362.273 158.364 362.273 157.259 c 362.273 156.157 363.168 155.259
 364.273 155.259 c 365.379 155.259 366.273 156.157 366.273 157.259 c f
418.027 157.259 m 418.027 158.364 417.133 159.259 416.027 159.259 c 414.922
 159.259 414.027 158.364 414.027 157.259 c 414.027 156.157 414.922 155.259
 416.027 155.259 c 417.133 155.259 418.027 156.157 418.027 157.259 c f
55.754 209.013 m 55.754 210.118 54.855 211.013 53.754 211.013 c 52.648 
211.013 51.754 210.118 51.754 209.013 c 51.754 207.907 52.648 207.013 53.754
 207.013 c 54.855 207.013 55.754 207.907 55.754 209.013 c f
4 209.013 m 4 210.118 3.105 211.013 2 211.013 c 0.895 211.013 0 210.118
 0 209.013 c 0 207.907 0.895 207.013 2 207.013 c 3.105 207.013 4 207.907
 4 209.013 c f
107.508 209.013 m 107.508 210.118 106.609 211.013 105.508 211.013 c 104.402
 211.013 103.508 210.118 103.508 209.013 c 103.508 207.907 104.402 207.013
 105.508 207.013 c 106.609 207.013 107.508 207.907 107.508 209.013 c f
159.262 209.013 m 159.262 210.118 158.363 211.013 157.262 211.013 c 156.156
 211.013 155.262 210.118 155.262 209.013 c 155.262 207.907 156.156 207.013
 157.262 207.013 c 158.363 207.013 159.262 207.907 159.262 209.013 c f
211.012 209.013 m 211.012 210.118 210.117 211.013 209.012 211.013 c 207.91
 211.013 207.012 210.118 207.012 209.013 c 207.012 207.907 207.91 207.013
 209.012 207.013 c 210.117 207.013 211.012 207.907 211.012 209.013 c f
262.766 209.013 m 262.766 210.118 261.871 211.013 260.766 211.013 c 259.664
 211.013 258.766 210.118 258.766 209.013 c 258.766 207.907 259.664 207.013
 260.766 207.013 c 261.871 207.013 262.766 207.907 262.766 209.013 c f
314.52 209.013 m 314.52 210.118 313.621 211.013 312.52 211.013 c 311.414
 211.013 310.52 210.118 310.52 209.013 c 310.52 207.907 311.414 207.013 
312.52 207.013 c 313.621 207.013 314.52 207.907 314.52 209.013 c f
366.273 209.013 m 366.273 210.118 365.379 211.013 364.273 211.013 c 363.168
 211.013 362.273 210.118 362.273 209.013 c 362.273 207.907 363.168 207.013
 364.273 207.013 c 365.379 207.013 366.273 207.907 366.273 209.013 c f
418.027 209.013 m 418.027 210.118 417.133 211.013 416.027 211.013 c 414.922
 211.013 414.027 210.118 414.027 209.013 c 414.027 207.907 414.922 207.013
 416.027 207.013 c 417.133 207.013 418.027 207.907 418.027 209.013 c f
55.754 260.766 m 55.754 261.872 54.855 262.766 53.754 262.766 c 52.648 
262.766 51.754 261.872 51.754 260.766 c 51.754 259.665 52.648 258.766 53.754
 258.766 c 54.855 258.766 55.754 259.665 55.754 260.766 c f
4 260.766 m 4 261.872 3.105 262.766 2 262.766 c 0.895 262.766 0 261.872
 0 260.766 c 0 259.665 0.895 258.766 2 258.766 c 3.105 258.766 4 259.665
 4 260.766 c f
107.508 260.766 m 107.508 261.872 106.609 262.766 105.508 262.766 c 104.402
 262.766 103.508 261.872 103.508 260.766 c 103.508 259.665 104.402 258.766
 105.508 258.766 c 106.609 258.766 107.508 259.665 107.508 260.766 c f
159.262 260.766 m 159.262 261.872 158.363 262.766 157.262 262.766 c 156.156
 262.766 155.262 261.872 155.262 260.766 c 155.262 259.665 156.156 258.766
 157.262 258.766 c 158.363 258.766 159.262 259.665 159.262 260.766 c f
211.012 260.766 m 211.012 261.872 210.117 262.766 209.012 262.766 c 207.91
 262.766 207.012 261.872 207.012 260.766 c 207.012 259.665 207.91 258.766
 209.012 258.766 c 210.117 258.766 211.012 259.665 211.012 260.766 c f
262.766 260.766 m 262.766 261.872 261.871 262.766 260.766 262.766 c 259.664
 262.766 258.766 261.872 258.766 260.766 c 258.766 259.665 259.664 258.766
 260.766 258.766 c 261.871 258.766 262.766 259.665 262.766 260.766 c f
314.52 260.766 m 314.52 261.872 313.621 262.766 312.52 262.766 c 311.414
 262.766 310.52 261.872 310.52 260.766 c 310.52 259.665 311.414 258.766 
312.52 258.766 c 313.621 258.766 314.52 259.665 314.52 260.766 c f
366.273 260.766 m 366.273 261.872 365.379 262.766 364.273 262.766 c 363.168
 262.766 362.273 261.872 362.273 260.766 c 362.273 259.665 363.168 258.766
 364.273 258.766 c 365.379 258.766 366.273 259.665 366.273 260.766 c f
418.027 260.766 m 418.027 261.872 417.133 262.766 416.027 262.766 c 414.922
 262.766 414.027 261.872 414.027 260.766 c 414.027 259.665 414.922 258.766
 416.027 258.766 c 417.133 258.766 418.027 259.665 418.027 260.766 c f
55.754 312.52 m 55.754 313.622 54.855 314.52 53.754 314.52 c 52.648 314.52
 51.754 313.622 51.754 312.52 c 51.754 311.415 52.648 310.52 53.754 310.52
 c 54.855 310.52 55.754 311.415 55.754 312.52 c f
4 312.52 m 4 313.622 3.105 314.52 2 314.52 c 0.895 314.52 0 313.622 0 312.52
 c 0 311.415 0.895 310.52 2 310.52 c 3.105 310.52 4 311.415 4 312.52 c f
107.508 312.52 m 107.508 313.622 106.609 314.52 105.508 314.52 c 104.402
 314.52 103.508 313.622 103.508 312.52 c 103.508 311.415 104.402 310.52 
105.508 310.52 c 106.609 310.52 107.508 311.415 107.508 312.52 c f
159.262 312.52 m 159.262 313.622 158.363 314.52 157.262 314.52 c 156.156
 314.52 155.262 313.622 155.262 312.52 c 155.262 311.415 156.156 310.52 
157.262 310.52 c 158.363 310.52 159.262 311.415 159.262 312.52 c f
211.012 312.52 m 211.012 313.622 210.117 314.52 209.012 314.52 c 207.91
 314.52 207.012 313.622 207.012 312.52 c 207.012 311.415 207.91 310.52 209.012
 310.52 c 210.117 310.52 211.012 311.415 211.012 312.52 c f
262.766 312.52 m 262.766 313.622 261.871 314.52 260.766 314.52 c 259.664
 314.52 258.766 313.622 258.766 312.52 c 258.766 311.415 259.664 310.52 
260.766 310.52 c 261.871 310.52 262.766 311.415 262.766 312.52 c f
314.52 312.52 m 314.52 313.622 313.621 314.52 312.52 314.52 c 311.414 314.52
 310.52 313.622 310.52 312.52 c 310.52 311.415 311.414 310.52 312.52 310.52
 c 313.621 310.52 314.52 311.415 314.52 312.52 c f
366.273 312.52 m 366.273 313.622 365.379 314.52 364.273 314.52 c 363.168
 314.52 362.273 313.622 362.273 312.52 c 362.273 311.415 363.168 310.52 
364.273 310.52 c 365.379 310.52 366.273 311.415 366.273 312.52 c f
418.027 312.52 m 418.027 313.622 417.133 314.52 416.027 314.52 c 414.922
 314.52 414.027 313.622 414.027 312.52 c 414.027 311.415 414.922 310.52 
416.027 310.52 c 417.133 310.52 418.027 311.415 418.027 312.52 c f
55.754 364.274 m 55.754 365.376 54.855 366.274 53.754 366.274 c 52.648 
366.274 51.754 365.376 51.754 364.274 c 51.754 363.169 52.648 362.274 53.754
 362.274 c 54.855 362.274 55.754 363.169 55.754 364.274 c f
4 364.274 m 4 365.376 3.105 366.274 2 366.274 c 0.895 366.274 0 365.376
 0 364.274 c 0 363.169 0.895 362.274 2 362.274 c 3.105 362.274 4 363.169
 4 364.274 c f
107.508 364.274 m 107.508 365.376 106.609 366.274 105.508 366.274 c 104.402
 366.274 103.508 365.376 103.508 364.274 c 103.508 363.169 104.402 362.274
 105.508 362.274 c 106.609 362.274 107.508 363.169 107.508 364.274 c f
159.262 364.274 m 159.262 365.376 158.363 366.274 157.262 366.274 c 156.156
 366.274 155.262 365.376 155.262 364.274 c 155.262 363.169 156.156 362.274
 157.262 362.274 c 158.363 362.274 159.262 363.169 159.262 364.274 c f
211.012 364.274 m 211.012 365.376 210.117 366.274 209.012 366.274 c 207.91
 366.274 207.012 365.376 207.012 364.274 c 207.012 363.169 207.91 362.274
 209.012 362.274 c 210.117 362.274 211.012 363.169 211.012 364.274 c f
262.766 364.274 m 262.766 365.376 261.871 366.274 260.766 366.274 c 259.664
 366.274 258.766 365.376 258.766 364.274 c 258.766 363.169 259.664 362.274
 260.766 362.274 c 261.871 362.274 262.766 363.169 262.766 364.274 c f
314.52 364.274 m 314.52 365.376 313.621 366.274 312.52 366.274 c 311.414
 366.274 310.52 365.376 310.52 364.274 c 310.52 363.169 311.414 362.274 
312.52 362.274 c 313.621 362.274 314.52 363.169 314.52 364.274 c f
366.273 364.274 m 366.273 365.376 365.379 366.274 364.273 366.274 c 363.168
 366.274 362.273 365.376 362.273 364.274 c 362.273 363.169 363.168 362.274
 364.273 362.274 c 365.379 362.274 366.273 363.169 366.273 364.274 c f
55.754 416.024 m 55.754 417.13 54.855 418.024 53.754 418.024 c 52.648 418.024
 51.754 417.13 51.754 416.024 c 51.754 414.923 52.648 414.024 53.754 414.024
 c 54.855 414.024 55.754 414.923 55.754 416.024 c f
4 416.024 m 4 417.13 3.105 418.024 2 418.024 c 0.895 418.024 0 417.13 0
 416.024 c 0 414.923 0.895 414.024 2 414.024 c 3.105 414.024 4 414.923 4
 416.024 c f
107.508 416.024 m 107.508 417.13 106.609 418.024 105.508 418.024 c 104.402
 418.024 103.508 417.13 103.508 416.024 c 103.508 414.923 104.402 414.024
 105.508 414.024 c 106.609 414.024 107.508 414.923 107.508 416.024 c f
159.262 416.024 m 159.262 417.13 158.363 418.024 157.262 418.024 c 156.156
 418.024 155.262 417.13 155.262 416.024 c 155.262 414.923 156.156 414.024
 157.262 414.024 c 158.363 414.024 159.262 414.923 159.262 416.024 c f
211.012 416.024 m 211.012 417.13 210.117 418.024 209.012 418.024 c 207.91
 418.024 207.012 417.13 207.012 416.024 c 207.012 414.923 207.91 414.024
 209.012 414.024 c 210.117 414.024 211.012 414.923 211.012 416.024 c f
262.766 416.024 m 262.766 417.13 261.871 418.024 260.766 418.024 c 259.664
 418.024 258.766 417.13 258.766 416.024 c 258.766 414.923 259.664 414.024
 260.766 414.024 c 261.871 414.024 262.766 414.923 262.766 416.024 c f
314.52 416.024 m 314.52 417.13 313.621 418.024 312.52 418.024 c 311.414
 418.024 310.52 417.13 310.52 416.024 c 310.52 414.923 311.414 414.024 312.52
 414.024 c 313.621 414.024 314.52 414.923 314.52 416.024 c f
0 0 1 rg
2 w
0 J
0 j
[] 0.0 d
10 M q 1 0 0 1 0 573.286011 cm
2 -519.531 51.754 -51.754 re S Q
q 1 0 0 1 0 573.286011 cm
53.754 -571.285 m 105.508 -571.285 l 105.508 -519.531 l 53.754 -519.531
 l S Q
q 1 0 0 1 0 573.286011 cm
105.508 -571.285 m 157.262 -571.285 l 157.262 -519.531 l 105.508 -519.531
 l S Q
q 1 0 0 1 0 573.286011 cm
157.262 -571.285 m 209.012 -571.285 l 209.012 -519.531 l 157.262 -519.531
 l S Q
q 1 0 0 1 0 573.286011 cm
209.012 -571.285 m 260.766 -571.285 l 260.766 -519.531 l 209.012 -519.531
 l S Q
q 1 0 0 1 0 573.286011 cm
260.766 -571.285 m 312.52 -571.285 l 312.52 -519.531 l 260.766 -519.531
 l S Q
q 1 0 0 1 0 573.286011 cm
312.52 -571.285 m 364.273 -571.285 l 364.273 -519.531 l 312.52 -519.531
 l S Q
q 1 0 0 1 0 573.286011 cm
364.273 -571.285 m 416.027 -571.285 l 416.027 -519.531 l 364.273 -519.531
 l S Q
q 1 0 0 1 0 573.286011 cm
416.027 -571.285 m 467.777 -571.285 l 467.777 -519.531 l 416.027 -519.531
 l S Q
q 1 0 0 1 0 573.286011 cm
53.754 -519.531 m 53.754 -467.777 l 2 -467.777 l 2 -519.531 l S Q
q 1 0 0 1 0 573.286011 cm
105.508 -519.531 m 105.508 -467.777 l 53.754 -467.777 l S Q
q 1 0 0 1 0 573.286011 cm
157.262 -519.531 m 157.262 -467.777 l 105.508 -467.777 l S Q
q 1 0 0 1 0 573.286011 cm
209.012 -519.531 m 209.012 -467.777 l 157.262 -467.777 l S Q
q 1 0 0 1 0 573.286011 cm
260.766 -519.531 m 260.766 -467.777 l 209.012 -467.777 l S Q
q 1 0 0 1 0 573.286011 cm
312.52 -519.531 m 312.52 -467.777 l 260.766 -467.777 l S Q
q 1 0 0 1 0 573.286011 cm
364.273 -519.531 m 364.273 -467.777 l 312.52 -467.777 l S Q
q 1 0 0 1 0 573.286011 cm
416.027 -519.531 m 416.027 -467.777 l 364.273 -467.777 l S Q
q 1 0 0 1 0 573.286011 cm
467.777 -519.531 m 467.777 -467.777 l 416.027 -467.777 l S Q
q 1 0 0 1 0 573.286011 cm
53.754 -467.777 m 53.754 -416.027 l 2 -416.027 l 2 -467.777 l S Q
q 1 0 0 1 0 573.286011 cm
105.508 -467.777 m 105.508 -416.027 l 53.754 -416.027 l S Q
q 1 0 0 1 0 573.286011 cm
157.262 -467.777 m 157.262 -416.027 l 105.508 -416.027 l S Q
q 1 0 0 1 0 573.286011 cm
209.012 -467.777 m 209.012 -416.027 l 157.262 -416.027 l S Q
q 1 0 0 1 0 573.286011 cm
260.766 -467.777 m 260.766 -416.027 l 209.012 -416.027 l S Q
q 1 0 0 1 0 573.286011 cm
312.52 -467.777 m 312.52 -416.027 l 260.766 -416.027 l S Q
q 1 0 0 1 0 573.286011 cm
364.273 -467.777 m 364.273 -416.027 l 312.52 -416.027 l S Q
q 1 0 0 1 0 573.286011 cm
416.027 -467.777 m 416.027 -416.027 l 364.273 -416.027 l S Q
q 1 0 0 1 0 573.286011 cm
467.777 -467.777 m 467.777 -416.027 l 416.027 -416.027 l S Q
q 1 0 0 1 0 573.286011 cm
53.754 -416.027 m 53.754 -364.273 l 2 -364.273 l 2 -416.027 l S Q
q 1 0 0 1 0 573.286011 cm
105.508 -416.027 m 105.508 -364.273 l 53.754 -364.273 l S Q
q 1 0 0 1 0 573.286011 cm
157.262 -416.027 m 157.262 -364.273 l 105.508 -364.273 l S Q
q 1 0 0 1 0 573.286011 cm
209.012 -416.027 m 209.012 -364.273 l 157.262 -364.273 l S Q
q 1 0 0 1 0 573.286011 cm
260.766 -416.027 m 260.766 -364.273 l 209.012 -364.273 l S Q
q 1 0 0 1 0 573.286011 cm
312.52 -416.027 m 312.52 -364.273 l 260.766 -364.273 l S Q
q 1 0 0 1 0 573.286011 cm
364.273 -416.027 m 364.273 -364.273 l 312.52 -364.273 l S Q
q 1 0 0 1 0 573.286011 cm
416.027 -416.027 m 416.027 -364.273 l 364.273 -364.273 l S Q
q 1 0 0 1 0 573.286011 cm
467.777 -416.027 m 467.777 -364.273 l 416.027 -364.273 l S Q
q 1 0 0 1 0 573.286011 cm
53.754 -364.273 m 53.754 -312.52 l 2 -312.52 l 2 -364.273 l S Q
q 1 0 0 1 0 573.286011 cm
105.508 -364.273 m 105.508 -312.52 l 53.754 -312.52 l S Q
q 1 0 0 1 0 573.286011 cm
157.262 -364.273 m 157.262 -312.52 l 105.508 -312.52 l S Q
q 1 0 0 1 0 573.286011 cm
209.012 -364.273 m 209.012 -312.52 l 157.262 -312.52 l S Q
q 1 0 0 1 0 573.286011 cm
260.766 -364.273 m 260.766 -312.52 l 209.012 -312.52 l S Q
q 1 0 0 1 0 573.286011 cm
312.52 -364.273 m 312.52 -312.52 l 260.766 -312.52 l S Q
q 1 0 0 1 0 573.286011 cm
364.273 -364.273 m 364.273 -312.52 l 312.52 -312.52 l S Q
q 1 0 0 1 0 573.286011 cm
416.027 -364.273 m 416.027 -312.52 l 364.273 -312.52 l S Q
q 1 0 0 1 0 573.286011 cm
467.777 -364.273 m 467.777 -312.52 l 416.027 -312.52 l S Q
q 1 0 0 1 0 573.286011 cm
53.754 -312.52 m 53.754 -260.766 l 2 -260.766 l 2 -312.52 l S Q
q 1 0 0 1 0 573.286011 cm
105.508 -312.52 m 105.508 -260.766 l 53.754 -260.766 l S Q
q 1 0 0 1 0 573.286011 cm
157.262 -312.52 m 157.262 -260.766 l 105.508 -260.766 l S Q
q 1 0 0 1 0 573.286011 cm
209.012 -312.52 m 209.012 -260.766 l 157.262 -260.766 l S Q
q 1 0 0 1 0 573.286011 cm
260.766 -312.52 m 260.766 -260.766 l 209.012 -260.766 l S Q
q 1 0 0 1 0 573.286011 cm
312.52 -312.52 m 312.52 -260.766 l 260.766 -260.766 l S Q
q 1 0 0 1 0 573.286011 cm
364.273 -312.52 m 364.273 -260.766 l 312.52 -260.766 l S Q
q 1 0 0 1 0 573.286011 cm
416.027 -312.52 m 416.027 -260.766 l 364.273 -260.766 l S Q
q 1 0 0 1 0 573.286011 cm
467.777 -312.52 m 467.777 -260.766 l 416.027 -260.766 l S Q
q 1 0 0 1 0 573.286011 cm
53.754 -260.766 m 53.754 -209.012 l 2 -209.012 l 2 -260.766 l S Q
q 1 0 0 1 0 573.286011 cm
105.508 -260.766 m 105.508 -209.012 l 53.754 -209.012 l S Q
q 1 0 0 1 0 573.286011 cm
157.262 -260.766 m 157.262 -209.012 l 105.508 -209.012 l S Q
q 1 0 0 1 0 573.286011 cm
209.012 -260.766 m 209.012 -209.012 l 157.262 -209.012 l S Q
q 1 0 0 1 0 573.286011 cm
260.766 -260.766 m 260.766 -209.012 l 209.012 -209.012 l S Q
q 1 0 0 1 0 573.286011 cm
312.52 -260.766 m 312.52 -209.012 l 260.766 -209.012 l S Q
q 1 0 0 1 0 573.286011 cm
364.273 -260.766 m 364.273 -209.012 l 312.52 -209.012 l S Q
q 1 0 0 1 0 573.286011 cm
416.027 -260.766 m 416.027 -209.012 l 364.273 -209.012 l S Q
q 1 0 0 1 0 573.286011 cm
467.777 -260.766 m 467.777 -209.012 l 416.027 -209.012 l S Q
q 1 0 0 1 0 573.286011 cm
53.754 -209.012 m 53.754 -157.262 l 2 -157.262 l 2 -209.012 l S Q
q 1 0 0 1 0 573.286011 cm
105.508 -209.012 m 105.508 -157.262 l 53.754 -157.262 l S Q
q 1 0 0 1 0 573.286011 cm
157.262 -209.012 m 157.262 -157.262 l 105.508 -157.262 l S Q
q 1 0 0 1 0 573.286011 cm
209.012 -209.012 m 209.012 -157.262 l 157.262 -157.262 l S Q
q 1 0 0 1 0 573.286011 cm
260.766 -209.012 m 260.766 -157.262 l 209.012 -157.262 l S Q
q 1 0 0 1 0 573.286011 cm
312.52 -209.012 m 312.52 -157.262 l 260.766 -157.262 l S Q
q 1 0 0 1 0 573.286011 cm
364.273 -209.012 m 364.273 -157.262 l 312.52 -157.262 l S Q
q 1 0 0 1 0 573.286011 cm
416.027 -209.012 m 416.027 -157.262 l 364.273 -157.262 l S Q
q 1 0 0 1 0 573.286011 cm
53.754 -157.262 m 53.754 -105.508 l 2 -105.508 l 2 -157.262 l S Q
q 1 0 0 1 0 573.286011 cm
105.508 -157.262 m 105.508 -105.508 l 53.754 -105.508 l S Q
q 1 0 0 1 0 573.286011 cm
157.262 -157.262 m 157.262 -105.508 l 105.508 -105.508 l S Q
q 1 0 0 1 0 573.286011 cm
209.012 -157.262 m 209.012 -105.508 l 157.262 -105.508 l S Q
q 1 0 0 1 0 573.286011 cm
260.766 -157.262 m 260.766 -105.508 l 209.012 -105.508 l S Q
q 1 0 0 1 0 573.286011 cm
312.52 -157.262 m 312.52 -105.508 l 260.766 -105.508 l S Q
q 1 0 0 1 0 573.286011 cm
364.273 -157.262 m 364.273 -105.508 l 312.52 -105.508 l S Q
q 1 0 0 1 0 573.286011 cm
467.777 -571.285 m 571.285 -571.285 l 571.285 -2 l 2 -2 l 2 -105.508 l S Q
0.027451 1 0.560784 rg
1 w
q 1 0 0 1 0 573.286011 cm
2 -545.41 25.879 -25.875 re S Q
q 1 0 0 1 0 573.286011 cm
2 -519.531 25.879 -25.879 re S Q
q 1 0 0 1 0 573.286011 cm
27.879 -545.41 25.875 -25.875 re S Q
q 1 0 0 1 0 573.286011 cm
27.879 -519.531 25.875 -25.879 re S Q
1 1 0.027451 rg
q 1 0 0 1 0 573.286011 cm
53.754 -545.41 25.875 -25.875 re S Q
q 1 0 0 1 0 573.286011 cm
79.629 -545.41 25.879 -25.875 re S Q
q 1 0 0 1 0 573.286011 cm
53.754 -519.531 25.875 -25.879 re S Q
q 1 0 0 1 0 573.286011 cm
79.629 -519.531 25.879 -25.879 re S Q
0.792157 1 0.027451 rg
q 1 0 0 1 0 573.286011 cm
131.383 -545.41 25.879 -25.875 re S Q
q 1 0 0 1 0 573.286011 cm
105.508 -545.41 25.875 -25.875 re S Q
q 1 0 0 1 0 573.286011 cm
131.383 -519.531 25.879 -25.879 re S Q
q 1 0 0 1 0 573.286011 cm
105.508 -519.531 25.875 -25.879 re S Q
0.466667 1 0.027451 rg
q 1 0 0 1 0 573.286011 cm
183.137 -545.41 25.875 -25.875 re S Q
q 1 0 0 1 0 573.286011 cm
157.262 -519.531 25.875 -25.879 re S Q
q 1 0 0 1 0 573.286011 cm
183.137 -519.531 25.875 -25.879 re S Q
q 1 0 0 1 0 573.286011 cm
157.262 -545.41 25.875 -25.875 re S Q
0.027451 1 0.239216 rg
q 1 0 0 1 0 573.286011 cm
234.891 -545.41 25.875 -25.875 re S Q
q 1 0 0 1 0 573.286011 cm
234.891 -519.531 25.875 -25.879 re S Q
q 1 0 0 1 0 573.286011 cm
209.012 -545.41 25.879 -25.875 re S Q
q 1 0 0 1 0 573.286011 cm
209.012 -519.531 25.879 -25.879 re S Q
1 0.678431 0.027451 rg
q 1 0 0 1 0 573.286011 cm
286.645 -545.41 25.875 -25.875 re S Q
q 1 0 0 1 0 573.286011 cm
260.766 -545.41 25.879 -25.875 re S Q
q 1 0 0 1 0 573.286011 cm
286.645 -519.531 25.875 -25.879 re S Q
q 1 0 0 1 0 573.286011 cm
260.766 -519.531 25.879 -25.879 re S Q
1 1 0.027451 rg
q 1 0 0 1 0 573.286011 cm
338.395 -545.41 25.879 -25.875 re S Q
q 1 0 0 1 0 573.286011 cm
312.52 -545.41 25.875 -25.875 re S Q
q 1 0 0 1 0 573.286011 cm
338.395 -519.531 25.879 -25.879 re S Q
q 1 0 0 1 0 573.286011 cm
312.52 -519.531 25.875 -25.879 re S Q
0.792157 1 0.027451 rg
q 1 0 0 1 0 573.286011 cm
390.148 -545.41 25.879 -25.875 re S Q
q 1 0 0 1 0 573.286011 cm
364.273 -545.41 25.875 -25.875 re S Q
q 1 0 0 1 0 573.286011 cm
390.148 -519.531 25.879 -25.879 re S Q
q 1 0 0 1 0 573.286011 cm
364.273 -519.531 25.875 -25.879 re S Q
0.466667 1 0.027451 rg
q 1 0 0 1 0 573.286011 cm
416.027 -519.531 25.875 -25.879 re S Q
q 1 0 0 1 0 573.286011 cm
441.902 -545.41 25.875 -25.875 re S Q
q 1 0 0 1 0 573.286011 cm
441.902 -519.531 25.875 -25.879 re S Q
q 1 0 0 1 0 573.286011 cm
416.027 -545.41 25.875 -25.875 re S Q
0.027451 1 0.239216 rg
q 1 0 0 1 0 573.286011 cm
27.879 -493.656 25.875 -25.875 re S Q
q 1 0 0 1 0 573.286011 cm
27.879 -467.777 25.875 -25.879 re S Q
q 1 0 0 1 0 573.286011 cm
2 -493.656 25.879 -25.875 re S Q
q 1 0 0 1 0 573.286011 cm
2 -467.777 25.879 -25.879 re S Q
0.027451 1 0.807843 rg
q 1 0 0 1 0 573.286011 cm
79.629 -493.656 25.879 -25.875 re S Q
q 1 0 0 1 0 573.286011 cm
79.629 -467.777 25.879 -25.879 re S Q
q 1 0 0 1 0 573.286011 cm
53.754 -467.777 25.875 -25.879 re S Q
q 1 0 0 1 0 573.286011 cm
53.754 -493.656 25.875 -25.875 re S Q
0.027451 0.741176 1 rg
q 1 0 0 1 0 573.286011 cm
131.383 -493.656 25.879 -25.875 re S Q
q 1 0 0 1 0 573.286011 cm
105.508 -467.777 25.875 -25.879 re S Q
q 1 0 0 1 0 573.286011 cm
131.383 -467.777 25.879 -25.879 re S Q
q 1 0 0 1 0 573.286011 cm
105.508 -493.656 25.875 -25.875 re S Q
0.027451 0.333333 1 rg
q 1 0 0 1 0 573.286011 cm
183.137 -493.656 25.875 -25.875 re S Q
q 1 0 0 1 0 573.286011 cm
157.262 -467.777 25.875 -25.879 re S Q
q 1 0 0 1 0 573.286011 cm
183.137 -467.777 25.875 -25.879 re S Q
q 1 0 0 1 0 573.286011 cm
157.262 -493.656 25.875 -25.875 re S Q
0.368627 0.027451 1 rg
q 1 0 0 1 0 573.286011 cm
234.891 -493.656 25.875 -25.875 re S Q
q 1 0 0 1 0 573.286011 cm
234.891 -467.777 25.875 -25.879 re S Q
q 1 0 0 1 0 573.286011 cm
209.012 -467.777 25.879 -25.879 re S Q
q 1 0 0 1 0 573.286011 cm
209.012 -493.656 25.879 -25.875 re S Q
0.776471 0.027451 1 rg
q 1 0 0 1 0 573.286011 cm
286.645 -467.777 25.875 -25.879 re S Q
q 1 0 0 1 0 573.286011 cm
286.645 -493.656 25.875 -25.875 re S Q
q 1 0 0 1 0 573.286011 cm
260.766 -467.777 25.879 -25.879 re S Q
q 1 0 0 1 0 573.286011 cm
260.766 -493.656 25.879 -25.875 re S Q
0.027451 1 0.807843 rg
q 1 0 0 1 0 573.286011 cm
338.395 -467.777 25.879 -25.879 re S Q
q 1 0 0 1 0 573.286011 cm
338.395 -493.656 25.879 -25.875 re S Q
q 1 0 0 1 0 573.286011 cm
312.52 -467.777 25.875 -25.879 re S Q
q 1 0 0 1 0 573.286011 cm
312.52 -493.656 25.875 -25.875 re S Q
0.027451 0.741176 1 rg
q 1 0 0 1 0 573.286011 cm
390.148 -467.777 25.879 -25.879 re S Q
q 1 0 0 1 0 573.286011 cm
390.148 -493.656 25.879 -25.875 re S Q
q 1 0 0 1 0 573.286011 cm
364.273 -467.777 25.875 -25.879 re S Q
q 1 0 0 1 0 573.286011 cm
364.273 -493.656 25.875 -25.875 re S Q
0.027451 0.333333 1 rg
q 1 0 0 1 0 573.286011 cm
416.027 -467.777 25.875 -25.879 re S Q
q 1 0 0 1 0 573.286011 cm
441.902 -493.656 25.875 -25.875 re S Q
q 1 0 0 1 0 573.286011 cm
441.902 -467.777 25.875 -25.879 re S Q
q 1 0 0 1 0 573.286011 cm
416.027 -493.656 25.875 -25.875 re S Q
0.368627 0.027451 1 rg
q 1 0 0 1 0 573.286011 cm
27.879 -441.902 25.875 -25.875 re S Q
q 1 0 0 1 0 573.286011 cm
2 -441.902 25.879 -25.875 re S Q
q 1 0 0 1 0 573.286011 cm
2 -416.027 25.879 -25.875 re S Q
q 1 0 0 1 0 573.286011 cm
27.879 -416.027 25.875 -25.875 re S Q
1 0.513726 0.027451 rg
q 1 0 0 1 0 573.286011 cm
79.629 -416.027 25.879 -25.875 re S Q
q 1 0 0 1 0 573.286011 cm
79.629 -441.902 25.879 -25.875 re S Q
q 1 0 0 1 0 573.286011 cm
53.754 -416.027 25.875 -25.875 re S Q
q 1 0 0 1 0 573.286011 cm
53.754 -441.902 25.875 -25.875 re S Q
1 0.839216 0.027451 rg
q 1 0 0 1 0 573.286011 cm
131.383 -416.027 25.879 -25.875 re S Q
q 1 0 0 1 0 573.286011 cm
131.383 -441.902 25.879 -25.875 re S Q
q 1 0 0 1 0 573.286011 cm
105.508 -416.027 25.875 -25.875 re S Q
q 1 0 0 1 0 573.286011 cm
105.508 -441.902 25.875 -25.875 re S Q
0.952941 1 0.027451 rg
q 1 0 0 1 0 573.286011 cm
183.137 -416.027 25.875 -25.875 re S Q
q 1 0 0 1 0 573.286011 cm
183.137 -441.902 25.875 -25.875 re S Q
q 1 0 0 1 0 573.286011 cm
157.262 -416.027 25.875 -25.875 re S Q
q 1 0 0 1 0 573.286011 cm
157.262 -441.902 25.875 -25.875 re S Q
0.627451 1 0.027451 rg
q 1 0 0 1 0 573.286011 cm
234.891 -441.902 25.875 -25.875 re S Q
q 1 0 0 1 0 573.286011 cm
234.891 -416.027 25.875 -25.875 re S Q
q 1 0 0 1 0 573.286011 cm
209.012 -416.027 25.879 -25.875 re S Q
q 1 0 0 1 0 573.286011 cm
209.012 -441.902 25.879 -25.875 re S Q
0.301961 1 0.027451 rg
q 1 0 0 1 0 573.286011 cm
286.645 -416.027 25.875 -25.875 re S Q
q 1 0 0 1 0 573.286011 cm
286.645 -441.902 25.875 -25.875 re S Q
q 1 0 0 1 0 573.286011 cm
260.766 -416.027 25.879 -25.875 re S Q
q 1 0 0 1 0 573.286011 cm
260.766 -441.902 25.879 -25.875 re S Q
1 0.513726 0.027451 rg
q 1 0 0 1 0 573.286011 cm
338.395 -416.027 25.879 -25.875 re S Q
q 1 0 0 1 0 573.286011 cm
338.395 -441.902 25.879 -25.875 re S Q
q 1 0 0 1 0 573.286011 cm
312.52 -416.027 25.875 -25.875 re S Q
q 1 0 0 1 0 573.286011 cm
312.52 -441.902 25.875 -25.875 re S Q
1 0.839216 0.027451 rg
q 1 0 0 1 0 573.286011 cm
390.148 -416.027 25.879 -25.875 re S Q
q 1 0 0 1 0 573.286011 cm
390.148 -441.902 25.879 -25.875 re S Q
q 1 0 0 1 0 573.286011 cm
364.273 -416.027 25.875 -25.875 re S Q
q 1 0 0 1 0 573.286011 cm
364.273 -441.902 25.875 -25.875 re S Q
0.952941 1 0.027451 rg
q 1 0 0 1 0 573.286011 cm
416.027 -416.027 25.875 -25.875 re S Q
q 1 0 0 1 0 573.286011 cm
441.902 -441.902 25.875 -25.875 re S Q
q 1 0 0 1 0 573.286011 cm
441.902 -416.027 25.875 -25.875 re S Q
q 1 0 0 1 0 573.286011 cm
416.027 -441.902 25.875 -25.875 re S Q
0.627451 1 0.027451 rg
q 1 0 0 1 0 573.286011 cm
2 -364.273 25.879 -25.875 re S Q
q 1 0 0 1 0 573.286011 cm
27.879 -364.273 25.875 -25.875 re S Q
q 1 0 0 1 0 573.286011 cm
2 -390.148 25.879 -25.879 re S Q
q 1 0 0 1 0 573.286011 cm
27.879 -390.148 25.875 -25.879 re S Q
0.45098 0.027451 1 rg
q 1 0 0 1 0 573.286011 cm
79.629 -390.148 25.879 -25.879 re S Q
q 1 0 0 1 0 573.286011 cm
79.629 -364.273 25.879 -25.875 re S Q
q 1 0 0 1 0 573.286011 cm
53.754 -390.148 25.875 -25.879 re S Q
q 1 0 0 1 0 573.286011 cm
53.754 -364.273 25.875 -25.875 re S Q
0.027451 1 0.560784 rg
q 1 0 0 1 0 573.286011 cm
131.383 -390.148 25.879 -25.879 re S Q
q 1 0 0 1 0 573.286011 cm
131.383 -364.273 25.879 -25.875 re S Q
q 1 0 0 1 0 573.286011 cm
105.508 -390.148 25.875 -25.879 re S Q
q 1 0 0 1 0 573.286011 cm
105.508 -364.273 25.875 -25.875 re S Q
0.027451 0.905882 1 rg
q 1 0 0 1 0 573.286011 cm
183.137 -390.148 25.875 -25.879 re S Q
q 1 0 0 1 0 573.286011 cm
183.137 -364.273 25.875 -25.875 re S Q
q 1 0 0 1 0 573.286011 cm
157.262 -390.148 25.875 -25.879 re S Q
q 1 0 0 1 0 573.286011 cm
157.262 -364.273 25.875 -25.875 re S Q
0.027451 0.498039 1 rg
q 1 0 0 1 0 573.286011 cm
234.891 -390.148 25.875 -25.879 re S Q
q 1 0 0 1 0 573.286011 cm
234.891 -364.273 25.875 -25.875 re S Q
q 1 0 0 1 0 573.286011 cm
209.012 -390.148 25.879 -25.879 re S Q
q 1 0 0 1 0 573.286011 cm
209.012 -364.273 25.879 -25.875 re S Q
0.121569 0.027451 1 rg
q 1 0 0 1 0 573.286011 cm
286.645 -390.148 25.875 -25.879 re S Q
q 1 0 0 1 0 573.286011 cm
286.645 -364.273 25.875 -25.875 re S Q
q 1 0 0 1 0 573.286011 cm
260.766 -390.148 25.879 -25.879 re S Q
q 1 0 0 1 0 573.286011 cm
260.766 -364.273 25.879 -25.875 re S Q
0.45098 0.027451 1 rg
q 1 0 0 1 0 573.286011 cm
338.395 -390.148 25.879 -25.879 re S Q
q 1 0 0 1 0 573.286011 cm
338.395 -364.273 25.879 -25.875 re S Q
q 1 0 0 1 0 573.286011 cm
312.52 -390.148 25.875 -25.879 re S Q
q 1 0 0 1 0 573.286011 cm
312.52 -364.273 25.875 -25.875 re S Q
0.027451 1 0.560784 rg
q 1 0 0 1 0 573.286011 cm
390.148 -390.148 25.879 -25.879 re S Q
q 1 0 0 1 0 573.286011 cm
390.148 -364.273 25.879 -25.875 re S Q
q 1 0 0 1 0 573.286011 cm
364.273 -390.148 25.875 -25.879 re S Q
q 1 0 0 1 0 573.286011 cm
364.273 -364.273 25.875 -25.875 re S Q
0.027451 0.905882 1 rg
q 1 0 0 1 0 573.286011 cm
416.027 -390.148 25.875 -25.879 re S Q
q 1 0 0 1 0 573.286011 cm
416.027 -364.273 25.875 -25.875 re S Q
q 1 0 0 1 0 573.286011 cm
441.902 -364.273 25.875 -25.875 re S Q
q 1 0 0 1 0 573.286011 cm
441.902 -390.148 25.875 -25.879 re S Q
0.027451 0.498039 1 rg
q 1 0 0 1 0 573.286011 cm
2 -312.52 25.879 -25.875 re S Q
q 1 0 0 1 0 573.286011 cm
27.879 -338.395 25.875 -25.879 re S Q
q 1 0 0 1 0 573.286011 cm
2 -338.395 25.879 -25.879 re S Q
q 1 0 0 1 0 573.286011 cm
27.879 -312.52 25.875 -25.875 re S Q
0.466667 1 0.027451 rg
q 1 0 0 1 0 573.286011 cm
79.629 -338.395 25.879 -25.879 re S Q
q 1 0 0 1 0 573.286011 cm
79.629 -312.52 25.879 -25.875 re S Q
q 1 0 0 1 0 573.286011 cm
53.754 -338.395 25.875 -25.879 re S Q
q 1 0 0 1 0 573.286011 cm
53.754 -312.52 25.875 -25.875 re S Q
0.027451 1 0.239216 rg
q 1 0 0 1 0 573.286011 cm
131.383 -338.395 25.879 -25.879 re S Q
q 1 0 0 1 0 573.286011 cm
131.383 -312.52 25.879 -25.875 re S Q
q 1 0 0 1 0 573.286011 cm
105.508 -338.395 25.875 -25.879 re S Q
q 1 0 0 1 0 573.286011 cm
105.508 -312.52 25.875 -25.875 re S Q
1 0.678431 0.027451 rg
q 1 0 0 1 0 573.286011 cm
183.137 -338.395 25.875 -25.879 re S Q
q 1 0 0 1 0 573.286011 cm
183.137 -312.52 25.875 -25.875 re S Q
q 1 0 0 1 0 573.286011 cm
157.262 -338.395 25.875 -25.879 re S Q
q 1 0 0 1 0 573.286011 cm
157.262 -312.52 25.875 -25.875 re S Q
1 1 0.027451 rg
q 1 0 0 1 0 573.286011 cm
234.891 -338.395 25.875 -25.879 re S Q
q 1 0 0 1 0 573.286011 cm
209.012 -312.52 25.879 -25.875 re S Q
q 1 0 0 1 0 573.286011 cm
234.891 -312.52 25.875 -25.875 re S Q
q 1 0 0 1 0 573.286011 cm
209.012 -338.395 25.879 -25.879 re S Q
0.792157 1 0.027451 rg
q 1 0 0 1 0 573.286011 cm
286.645 -338.395 25.875 -25.879 re S Q
q 1 0 0 1 0 573.286011 cm
286.645 -312.52 25.875 -25.875 re S Q
q 1 0 0 1 0 573.286011 cm
260.766 -338.395 25.879 -25.879 re S Q
q 1 0 0 1 0 573.286011 cm
260.766 -312.52 25.879 -25.875 re S Q
0.466667 1 0.027451 rg
q 1 0 0 1 0 573.286011 cm
338.395 -338.395 25.879 -25.879 re S Q
q 1 0 0 1 0 573.286011 cm
338.395 -312.52 25.879 -25.875 re S Q
q 1 0 0 1 0 573.286011 cm
312.52 -338.395 25.875 -25.879 re S Q
q 1 0 0 1 0 573.286011 cm
312.52 -312.52 25.875 -25.875 re S Q
0.027451 1 0.239216 rg
q 1 0 0 1 0 573.286011 cm
390.148 -338.395 25.879 -25.879 re S Q
q 1 0 0 1 0 573.286011 cm
390.148 -312.52 25.879 -25.875 re S Q
q 1 0 0 1 0 573.286011 cm
364.273 -338.395 25.875 -25.879 re S Q
q 1 0 0 1 0 573.286011 cm
364.273 -312.52 25.875 -25.875 re S Q
1 0.678431 0.027451 rg
q 1 0 0 1 0 573.286011 cm
441.902 -312.52 25.875 -25.875 re S Q
q 1 0 0 1 0 573.286011 cm
416.027 -312.52 25.875 -25.875 re S Q
q 1 0 0 1 0 573.286011 cm
441.902 -338.395 25.875 -25.879 re S Q
q 1 0 0 1 0 573.286011 cm
416.027 -338.395 25.875 -25.879 re S Q
1 1 0.027451 rg
q 1 0 0 1 0 573.286011 cm
2 -260.766 25.879 -25.879 re S Q
q 1 0 0 1 0 573.286011 cm
27.879 -260.766 25.875 -25.879 re S Q
q 1 0 0 1 0 573.286011 cm
2 -286.645 25.879 -25.875 re S Q
q 1 0 0 1 0 573.286011 cm
27.879 -286.645 25.875 -25.875 re S Q
0.027451 0.333333 1 rg
q 1 0 0 1 0 573.286011 cm
79.629 -260.766 25.879 -25.879 re S Q
q 1 0 0 1 0 573.286011 cm
79.629 -286.645 25.879 -25.875 re S Q
q 1 0 0 1 0 573.286011 cm
53.754 -260.766 25.875 -25.879 re S Q
q 1 0 0 1 0 573.286011 cm
53.754 -286.645 25.875 -25.875 re S Q
0.368627 0.027451 1 rg
q 1 0 0 1 0 573.286011 cm
131.383 -260.766 25.879 -25.879 re S Q
q 1 0 0 1 0 573.286011 cm
105.508 -260.766 25.875 -25.879 re S Q
q 1 0 0 1 0 573.286011 cm
131.383 -286.645 25.879 -25.875 re S Q
q 1 0 0 1 0 573.286011 cm
105.508 -286.645 25.875 -25.875 re S Q
0.776471 0.027451 1 rg
q 1 0 0 1 0 573.286011 cm
157.262 -260.766 25.875 -25.879 re S Q
q 1 0 0 1 0 573.286011 cm
183.137 -260.766 25.875 -25.879 re S Q
q 1 0 0 1 0 573.286011 cm
157.262 -286.645 25.875 -25.875 re S Q
q 1 0 0 1 0 573.286011 cm
183.137 -286.645 25.875 -25.875 re S Q
0.027451 1 0.807843 rg
q 1 0 0 1 0 573.286011 cm
234.891 -286.645 25.875 -25.875 re S Q
q 1 0 0 1 0 573.286011 cm
234.891 -260.766 25.875 -25.879 re S Q
q 1 0 0 1 0 573.286011 cm
209.012 -286.645 25.879 -25.875 re S Q
q 1 0 0 1 0 573.286011 cm
209.012 -260.766 25.879 -25.879 re S Q
0.027451 0.741176 1 rg
q 1 0 0 1 0 573.286011 cm
260.766 -286.645 25.879 -25.875 re S Q
q 1 0 0 1 0 573.286011 cm
286.645 -286.645 25.875 -25.875 re S Q
q 1 0 0 1 0 573.286011 cm
260.766 -260.766 25.879 -25.879 re S Q
q 1 0 0 1 0 573.286011 cm
286.645 -260.766 25.875 -25.879 re S Q
0.027451 0.333333 1 rg
q 1 0 0 1 0 573.286011 cm
312.52 -286.645 25.875 -25.875 re S Q
q 1 0 0 1 0 573.286011 cm
338.395 -286.645 25.879 -25.875 re S Q
q 1 0 0 1 0 573.286011 cm
312.52 -260.766 25.875 -25.879 re S Q
q 1 0 0 1 0 573.286011 cm
338.395 -260.766 25.879 -25.879 re S Q
0.368627 0.027451 1 rg
q 1 0 0 1 0 573.286011 cm
364.273 -286.645 25.875 -25.875 re S Q
q 1 0 0 1 0 573.286011 cm
390.148 -286.645 25.879 -25.875 re S Q
q 1 0 0 1 0 573.286011 cm
364.273 -260.766 25.875 -25.879 re S Q
q 1 0 0 1 0 573.286011 cm
390.148 -260.766 25.879 -25.879 re S Q
0.776471 0.027451 1 rg
q 1 0 0 1 0 573.286011 cm
416.027 -286.645 25.875 -25.875 re S Q
q 1 0 0 1 0 573.286011 cm
416.027 -260.766 25.875 -25.879 re S Q
q 1 0 0 1 0 573.286011 cm
441.902 -260.766 25.875 -25.879 re S Q
q 1 0 0 1 0 573.286011 cm
441.902 -286.645 25.875 -25.875 re S Q
0.027451 1 0.807843 rg
q 1 0 0 1 0 573.286011 cm
2 -209.012 25.879 -25.879 re S Q
q 1 0 0 1 0 573.286011 cm
27.879 -209.012 25.875 -25.879 re S Q
q 1 0 0 1 0 573.286011 cm
2 -234.891 25.879 -25.875 re S Q
q 1 0 0 1 0 573.286011 cm
27.879 -234.891 25.875 -25.875 re S Q
0.952941 1 0.027451 rg
q 1 0 0 1 0 573.286011 cm
79.629 -209.012 25.879 -25.879 re S Q
q 1 0 0 1 0 573.286011 cm
79.629 -234.891 25.879 -25.875 re S Q
q 1 0 0 1 0 573.286011 cm
53.754 -209.012 25.875 -25.879 re S Q
q 1 0 0 1 0 573.286011 cm
53.754 -234.891 25.875 -25.875 re S Q
0.627451 1 0.027451 rg
q 1 0 0 1 0 573.286011 cm
131.383 -209.012 25.879 -25.879 re S Q
q 1 0 0 1 0 573.286011 cm
105.508 -209.012 25.875 -25.879 re S Q
q 1 0 0 1 0 573.286011 cm
131.383 -234.891 25.879 -25.875 re S Q
q 1 0 0 1 0 573.286011 cm
105.508 -234.891 25.875 -25.875 re S Q
0.301961 1 0.027451 rg
q 1 0 0 1 0 573.286011 cm
183.137 -209.012 25.875 -25.879 re S Q
q 1 0 0 1 0 573.286011 cm
157.262 -234.891 25.875 -25.875 re S Q
q 1 0 0 1 0 573.286011 cm
183.137 -234.891 25.875 -25.875 re S Q
q 1 0 0 1 0 573.286011 cm
157.262 -209.012 25.875 -25.879 re S Q
1 0.513726 0.027451 rg
q 1 0 0 1 0 573.286011 cm
234.891 -234.891 25.875 -25.875 re S Q
q 1 0 0 1 0 573.286011 cm
234.891 -209.012 25.875 -25.879 re S Q
q 1 0 0 1 0 573.286011 cm
209.012 -234.891 25.879 -25.875 re S Q
q 1 0 0 1 0 573.286011 cm
209.012 -209.012 25.879 -25.879 re S Q
1 0.839216 0.027451 rg
q 1 0 0 1 0 573.286011 cm
260.766 -234.891 25.879 -25.875 re S Q
q 1 0 0 1 0 573.286011 cm
286.645 -234.891 25.875 -25.875 re S Q
q 1 0 0 1 0 573.286011 cm
260.766 -209.012 25.879 -25.879 re S Q
q 1 0 0 1 0 573.286011 cm
286.645 -209.012 25.875 -25.879 re S Q
0.952941 1 0.027451 rg
q 1 0 0 1 0 573.286011 cm
312.52 -234.891 25.875 -25.875 re S Q
q 1 0 0 1 0 573.286011 cm
338.395 -234.891 25.879 -25.875 re S Q
q 1 0 0 1 0 573.286011 cm
312.52 -209.012 25.875 -25.879 re S Q
q 1 0 0 1 0 573.286011 cm
338.395 -209.012 25.879 -25.879 re S Q
0.627451 1 0.027451 rg
q 1 0 0 1 0 573.286011 cm
364.273 -234.891 25.875 -25.875 re S Q
q 1 0 0 1 0 573.286011 cm
390.148 -234.891 25.879 -25.875 re S Q
q 1 0 0 1 0 573.286011 cm
364.273 -209.012 25.875 -25.879 re S Q
q 1 0 0 1 0 573.286011 cm
390.148 -209.012 25.879 -25.879 re S Q
0.301961 1 0.027451 rg
q 1 0 0 1 0 573.286011 cm
416.027 -234.891 25.875 -25.875 re S Q
q 1 0 0 1 0 573.286011 cm
416.027 -209.012 25.875 -25.879 re S Q
q 1 0 0 1 0 573.286011 cm
441.902 -209.012 25.875 -25.879 re S Q
q 1 0 0 1 0 573.286011 cm
441.902 -234.891 25.875 -25.875 re S Q
1 0.513726 0.027451 rg
q 1 0 0 1 0 573.286011 cm
2 -157.262 25.879 -25.875 re S Q
q 1 0 0 1 0 573.286011 cm
27.879 -157.262 25.875 -25.875 re S Q
q 1 0 0 1 0 573.286011 cm
2 -183.137 25.879 -25.875 re S Q
q 1 0 0 1 0 573.286011 cm
27.879 -183.137 25.875 -25.875 re S Q
0.027451 0.905882 1 rg
q 1 0 0 1 0 573.286011 cm
79.629 -157.262 25.879 -25.875 re S Q
q 1 0 0 1 0 573.286011 cm
79.629 -183.137 25.879 -25.875 re S Q
q 1 0 0 1 0 573.286011 cm
53.754 -157.262 25.875 -25.875 re S Q
q 1 0 0 1 0 573.286011 cm
53.754 -183.137 25.875 -25.875 re S Q
0.027451 0.498039 1 rg
q 1 0 0 1 0 573.286011 cm
105.508 -183.137 25.875 -25.875 re S Q
q 1 0 0 1 0 573.286011 cm
131.383 -183.137 25.879 -25.875 re S Q
q 1 0 0 1 0 573.286011 cm
131.383 -157.262 25.879 -25.875 re S Q
q 1 0 0 1 0 573.286011 cm
105.508 -157.262 25.875 -25.875 re S Q
0.121569 0.027451 1 rg
q 1 0 0 1 0 573.286011 cm
183.137 -183.137 25.875 -25.875 re S Q
q 1 0 0 1 0 573.286011 cm
157.262 -183.137 25.875 -25.875 re S Q
q 1 0 0 1 0 573.286011 cm
183.137 -157.262 25.875 -25.875 re S Q
q 1 0 0 1 0 573.286011 cm
157.262 -157.262 25.875 -25.875 re S Q
0.45098 0.027451 1 rg
q 1 0 0 1 0 573.286011 cm
234.891 -183.137 25.875 -25.875 re S Q
q 1 0 0 1 0 573.286011 cm
234.891 -157.262 25.875 -25.875 re S Q
q 1 0 0 1 0 573.286011 cm
209.012 -183.137 25.879 -25.875 re S Q
q 1 0 0 1 0 573.286011 cm
209.012 -157.262 25.879 -25.875 re S Q
0.027451 1 0.560784 rg
q 1 0 0 1 0 573.286011 cm
260.766 -183.137 25.879 -25.875 re S Q
q 1 0 0 1 0 573.286011 cm
286.645 -183.137 25.875 -25.875 re S Q
q 1 0 0 1 0 573.286011 cm
260.766 -157.262 25.879 -25.875 re S Q
q 1 0 0 1 0 573.286011 cm
286.645 -157.262 25.875 -25.875 re S Q
0.027451 0.905882 1 rg
q 1 0 0 1 0 573.286011 cm
312.52 -183.137 25.875 -25.875 re S Q
q 1 0 0 1 0 573.286011 cm
338.395 -183.137 25.879 -25.875 re S Q
q 1 0 0 1 0 573.286011 cm
312.52 -157.262 25.875 -25.875 re S Q
q 1 0 0 1 0 573.286011 cm
338.395 -157.262 25.879 -25.875 re S Q
0.027451 0.498039 1 rg
q 1 0 0 1 0 573.286011 cm
364.273 -183.137 25.875 -25.875 re S Q
q 1 0 0 1 0 573.286011 cm
390.148 -183.137 25.879 -25.875 re S Q
q 1 0 0 1 0 573.286011 cm
364.273 -157.262 25.875 -25.875 re S Q
q 1 0 0 1 0 573.286011 cm
390.148 -157.262 25.879 -25.875 re S Q
0.121569 0.027451 1 rg
q 1 0 0 1 0 573.286011 cm
2 -131.383 25.879 -25.879 re S Q
q 1 0 0 1 0 573.286011 cm
27.879 -131.383 25.875 -25.879 re S Q
q 1 0 0 1 0 573.286011 cm
2 -105.508 25.879 -25.875 re S Q
q 1 0 0 1 0 573.286011 cm
27.879 -105.508 25.875 -25.875 re S Q
0.027451 1 0.239216 rg
q 1 0 0 1 0 573.286011 cm
79.629 -131.383 25.879 -25.879 re S Q
q 1 0 0 1 0 573.286011 cm
53.754 -131.383 25.875 -25.879 re S Q
q 1 0 0 1 0 573.286011 cm
79.629 -105.508 25.879 -25.875 re S Q
q 1 0 0 1 0 573.286011 cm
53.754 -105.508 25.875 -25.875 re S Q
1 0.678431 0.027451 rg
q 1 0 0 1 0 573.286011 cm
131.383 -131.383 25.879 -25.879 re S Q
q 1 0 0 1 0 573.286011 cm
105.508 -131.383 25.875 -25.879 re S Q
q 1 0 0 1 0 573.286011 cm
131.383 -105.508 25.879 -25.875 re S Q
q 1 0 0 1 0 573.286011 cm
105.508 -105.508 25.875 -25.875 re S Q
1 1 0.027451 rg
q 1 0 0 1 0 573.286011 cm
183.137 -131.383 25.875 -25.879 re S Q
q 1 0 0 1 0 573.286011 cm
157.262 -131.383 25.875 -25.879 re S Q
q 1 0 0 1 0 573.286011 cm
183.137 -105.508 25.875 -25.875 re S Q
q 1 0 0 1 0 573.286011 cm
157.262 -105.508 25.875 -25.875 re S Q
0.792157 1 0.027451 rg
q 1 0 0 1 0 573.286011 cm
209.012 -131.383 25.879 -25.879 re S Q
q 1 0 0 1 0 573.286011 cm
234.891 -131.383 25.875 -25.879 re S Q
q 1 0 0 1 0 573.286011 cm
234.891 -105.508 25.875 -25.875 re S Q
q 1 0 0 1 0 573.286011 cm
209.012 -105.508 25.879 -25.875 re S Q
0.466667 1 0.027451 rg
q 1 0 0 1 0 573.286011 cm
260.766 -131.383 25.879 -25.879 re S Q
q 1 0 0 1 0 573.286011 cm
286.645 -131.383 25.875 -25.879 re S Q
q 1 0 0 1 0 573.286011 cm
286.645 -105.508 25.875 -25.875 re S Q
q 1 0 0 1 0 573.286011 cm
260.766 -105.508 25.879 -25.875 re S Q
0.027451 1 0.239216 rg
q 1 0 0 1 0 573.286011 cm
312.52 -131.383 25.875 -25.879 re S Q
q 1 0 0 1 0 573.286011 cm
338.395 -131.383 25.879 -25.879 re S Q
q 1 0 0 1 0 573.286011 cm
338.395 -105.508 25.879 -25.875 re S Q
q 1 0 0 1 0 573.286011 cm
312.52 -105.508 25.875 -25.875 re S Q
0.027451 0.905882 1 rg
q 1 0 0 1 0 573.286011 cm
571.285 -476.406 m 571.285 -428.965 l 529.074 -467.781 l 571.285 -476.406
 l S Q
q 1 0 0 1 0 573.286011 cm
529.074 -467.781 m 571.285 -523.844 l 571.285 -476.406 l 529.074 -467.781
 l S Q
q 1 0 0 1 0 573.286011 cm
467.777 -493.656 m 467.777 -519.531 l 497.992 -508.59 l 467.777 -493.656
 l S Q
q 1 0 0 1 0 573.286011 cm
497.992 -508.59 m 467.777 -467.777 l 467.777 -493.656 l 497.992 -508.59
 l S Q
q 1 0 0 1 0 573.286011 cm
467.777 -209.012 m 489.879 -208.168 l 464.023 -180.312 l 467.777 -209.012
 l S Q
q 1 0 0 1 0 573.286011 cm
464.023 -180.312 m 441.902 -209.012 l 467.777 -209.012 l 464.023 -180.312
 l S Q
q 1 0 0 1 0 573.286011 cm
432.309 -92.496 m 444.027 -131.695 l 484.051 -146.582 l 480.867 -94.391
 l 432.309 -92.496 l S Q
q 1 0 0 1 0 573.286011 cm
501.723 -389.461 m 522.719 -419.438 l 571.285 -381.523 l 531.148 -369.926
 l 501.723 -389.461 l S Q
q 1 0 0 1 0 573.286011 cm
497.992 -508.59 m 529.922 -531.848 l 571.285 -523.844 l 529.074 -467.781
 l 497.992 -508.59 l S Q
q 1 0 0 1 0 573.286011 cm
431.926 -45.445 m 432.309 -92.496 l 480.867 -94.391 l 478.195 -47.695 l
 431.926 -45.445 l S Q
q 1 0 0 1 0 573.286011 cm
2 -53.754 m 51.523 -44.445 l 49.441 -2 l 2 -2 l 2 -53.754 l S Q
q 1 0 0 1 0 573.286011 cm
528.816 -142.75 m 526.152 -95.988 l 480.867 -94.391 l 484.051 -146.582 
l 528.816 -142.75 l S Q
q 1 0 0 1 0 573.286011 cm
387.414 -43.426 m 393.434 -77.223 l 432.309 -92.496 l 431.926 -45.445 l
 387.414 -43.426 l S Q
q 1 0 0 1 0 573.286011 cm
526.152 -95.988 m 524.832 -48.766 l 478.195 -47.695 l 480.867 -94.391 l
 526.152 -95.988 l S Q
q 1 0 0 1 0 573.286011 cm
286.559 -43.238 m 337.855 -49.223 l 334.082 -2 l 286.645 -2 l 286.559 -43.238
 l S Q
q 1 0 0 1 0 573.286011 cm
524.395 -334.668 m 571.285 -334.082 l 571.285 -286.645 l 530.145 -287.332
 l 524.395 -334.668 l S Q
q 1 0 0 1 0 573.286011 cm
523.707 -236.371 m 530.145 -287.332 l 571.285 -286.645 l 571.285 -239.203
 l 523.707 -236.371 l S Q
q 1 0 0 1 0 573.286011 cm
529.074 -467.781 m 571.285 -428.965 l 571.285 -381.523 l 522.719 -419.438
 l 529.074 -467.781 l S Q
q 1 0 0 1 0 573.286011 cm
100.961 -49.156 m 148.348 -41.336 l 144.32 -2 l 96.883 -2 l 100.961 -49.156
 l S Q
q 1 0 0 1 0 573.286011 cm
188.977 -41.133 m 191.762 -2 l 144.32 -2 l 148.348 -41.336 l 188.977 -41.133
 l S Q
q 1 0 0 1 0 573.286011 cm
51.523 -44.445 m 100.961 -49.156 l 96.883 -2 l 49.441 -2 l 51.523 -44.445
 l S Q
q 1 0 0 1 0 573.286011 cm
493.898 -317.887 m 485.711 -338.023 l 493.23 -356.57 l 524.395 -334.668
 l 493.898 -317.887 l S Q
q 1 0 0 1 0 573.286011 cm
235.855 -48.777 m 286.559 -43.238 l 286.645 -2 l 239.203 -2 l 235.855 -48.777
 l S Q
q 1 0 0 1 0 573.286011 cm
531.148 -369.926 m 571.285 -381.523 l 571.285 -334.082 l 524.395 -334.668
 l 531.148 -369.926 l S Q
q 1 0 0 1 0 573.286011 cm
235.855 -48.777 m 239.203 -2 l 191.762 -2 l 188.977 -41.133 l 235.855 -48.777
 l 255.613 -79.602 l 286.711 -77.262 l 286.559 -43.238 l 235.855 -48.777
 l 188.977 -41.133 l 184.898 -75.484 l 213.438 -79.621 l 235.855 -48.777
 l S Q
q 1 0 0 1 0 573.286011 cm
523.707 -236.371 m 571.285 -239.203 l 571.285 -191.762 l 530.645 -187.23
 l 523.707 -236.371 l S Q
q 1 0 0 1 0 573.286011 cm
337.855 -49.223 m 387.414 -43.426 l 381.523 -2 l 334.082 -2 l 337.855 -49.223
 l S Q
q 1 0 0 1 0 573.286011 cm
519.531 -571.285 m 571.285 -571.285 l 571.285 -523.844 l 529.922 -531.848
 l 519.531 -571.285 l S Q
q 1 0 0 1 0 573.286011 cm
526.152 -95.988 m 528.816 -142.75 l 571.285 -144.32 l 571.285 -96.883 l
 526.152 -95.988 l S Q
q 1 0 0 1 0 573.286011 cm
530.645 -187.23 m 571.285 -191.762 l 571.285 -144.32 l 528.816 -142.75 
l 530.645 -187.23 l S Q
q 1 0 0 1 0 573.286011 cm
478.195 -47.695 m 476.406 -2 l 428.965 -2 l 431.926 -45.445 l 478.195 -47.695
 l S Q
q 1 0 0 1 0 573.286011 cm
387.414 -43.426 m 431.926 -45.445 l 428.965 -2 l 381.523 -2 l 387.414 -43.426
 l S Q
q 1 0 0 1 0 573.286011 cm
523.707 -236.371 m 530.645 -187.23 l 502.73 -182.539 l 489.879 -208.168
 l 523.707 -236.371 l S Q
q 1 0 0 1 0 573.286011 cm
522.719 -419.438 m 492.695 -435.645 l 496.367 -457.387 l 529.074 -467.781
 l 522.719 -419.438 l S Q
q 1 0 0 1 0 573.286011 cm
524.832 -48.766 m 523.844 -2 l 476.406 -2 l 478.195 -47.695 l 524.832 -48.766
 l 526.152 -95.988 l 571.285 -96.883 l 571.285 -49.441 l 524.832 -48.766
 l S Q
q 1 0 0 1 0 573.286011 cm
571.285 -49.441 m 571.285 -2 l 523.844 -2 l 524.832 -48.766 l 571.285 -49.441
 l S Q
q 1 0 0 1 0 573.286011 cm
390.148 -157.262 m 390.285 -131.508 l 364.273 -131.383 l 364.273 -157.262
 l 390.148 -157.262 l S Q
q 1 0 0 1 0 573.286011 cm
416.027 -183.137 m 416.027 -209.012 l 441.902 -209.012 l 433.18 -182.609
 l 416.027 -183.137 l 433.18 -182.609 l 442.68 -156.492 l 416.027 -157.262
 l 416.027 -183.137 l S Q
q 1 0 0 1 0 573.286011 cm
364.273 -131.383 m 390.285 -131.508 l 391.828 -106.492 l 364.273 -105.508
 l 364.273 -131.383 l S Q
q 1 0 0 1 0 573.286011 cm
390.285 -131.508 m 390.148 -157.262 l 416.027 -157.262 l 415.508 -130.793
 l 390.285 -131.508 l S Q
q 1 0 0 1 0 573.286011 cm
432.309 -92.496 m 393.434 -77.223 l 391.828 -106.492 l 412.105 -110.832
 l 432.309 -92.496 l S Q
q 1 0 0 1 0 573.286011 cm
364.273 -105.508 m 391.828 -106.492 l 393.434 -77.223 l 366.754 -77.141
 l 364.273 -105.508 l S Q
q 1 0 0 1 0 573.286011 cm
444.027 -131.695 m 415.508 -130.793 l 416.027 -157.262 l 442.68 -156.492
 l 444.027 -131.695 l S Q
q 1 0 0 1 0 573.286011 cm
337.855 -49.223 m 366.754 -77.141 l 393.434 -77.223 l 387.414 -43.426 l
 337.855 -49.223 l S Q
q 1 0 0 1 0 573.286011 cm
484.051 -146.582 m 464.023 -180.312 l 489.879 -208.168 l 502.73 -182.539
 l 484.051 -146.582 l S Q
q 1 0 0 1 0 573.286011 cm
213.438 -79.621 m 209.012 -105.508 l 234.891 -105.508 l 233.383 -87.051
 l 213.438 -79.621 l S Q
q 1 0 0 1 0 573.286011 cm
496.051 -287 m 467.777 -286.645 l 467.777 -312.52 l 493.898 -317.887 l 
496.051 -287 l S Q
q 1 0 0 1 0 573.286011 cm
286.711 -77.262 m 255.613 -79.602 l 260.766 -105.508 l 286.645 -105.508
 l 286.711 -77.262 l S Q
q 1 0 0 1 0 573.286011 cm
501.723 -389.461 m 467.777 -390.148 l 467.777 -416.027 l 486.891 -416.207
 l 501.723 -389.461 l S Q
q 1 0 0 1 0 573.286011 cm
128.879 -77.141 m 104.391 -87.129 l 105.508 -105.508 l 131.383 -105.508
 l 128.879 -77.141 l S Q
q 1 0 0 1 0 573.286011 cm
501.723 -389.461 m 493.23 -356.57 l 467.777 -364.273 l 467.777 -390.148
 l 501.723 -389.461 l S Q
q 1 0 0 1 0 573.286011 cm
286.711 -77.262 m 286.645 -105.508 l 312.52 -105.508 l 318.785 -80.762 
l 286.711 -77.262 l S Q
q 1 0 0 1 0 573.286011 cm
366.754 -77.141 m 339.789 -87.266 l 338.395 -105.508 l 364.273 -105.508
 l 366.754 -77.141 l S Q
q 1 0 0 1 0 573.286011 cm
496.367 -457.387 m 492.695 -435.645 l 467.777 -441.902 l 467.777 -467.777
 l 496.367 -457.387 l S Q
q 1 0 0 1 0 573.286011 cm
496.051 -287 m 492.305 -256.352 l 467.777 -260.766 l 467.777 -286.645 l
 496.051 -287 l S Q
q 1 0 0 1 0 573.286011 cm
484.621 -234.141 m 467.777 -234.891 l 467.777 -260.766 l 492.305 -256.352
 l 484.621 -234.141 l S Q
q 1 0 0 1 0 573.286011 cm
128.879 -77.141 m 131.383 -105.508 l 157.262 -105.508 l 153.715 -75.465
 l 128.879 -77.141 l S Q
q 1 0 0 1 0 573.286011 cm
484.621 -234.141 m 489.879 -208.168 l 467.777 -209.012 l 467.777 -234.891
 l 484.621 -234.141 l S Q
q 1 0 0 1 0 573.286011 cm
213.438 -79.621 m 184.898 -75.484 l 183.137 -105.508 l 209.012 -105.508
 l 213.438 -79.621 l S Q
q 1 0 0 1 0 573.286011 cm
441.902 -209.012 m 464.023 -180.312 l 442.68 -156.492 l 433.18 -182.609
 l 441.902 -209.012 l S Q
q 1 0 0 1 0 573.286011 cm
412.105 -110.832 m 391.828 -106.492 l 390.285 -131.508 l 415.508 -130.793
 l 412.105 -110.832 l S Q
q 1 0 0 1 0 573.286011 cm
432.309 -92.496 m 412.105 -110.832 l 415.508 -130.793 l 444.027 -131.695
 l 432.309 -92.496 l S Q
q 1 0 0 1 0 573.286011 cm
213.438 -79.621 m 233.383 -87.051 l 255.613 -79.602 l 235.855 -48.777 l
 213.438 -79.621 l S Q
q 1 0 0 1 0 573.286011 cm
501.723 -389.461 m 486.891 -416.207 l 492.695 -435.645 l 522.719 -419.438
 l 501.723 -389.461 l S Q
q 1 0 0 1 0 573.286011 cm
366.754 -77.141 m 337.855 -49.223 l 318.785 -80.762 l 339.789 -87.266 l
 366.754 -77.141 l S Q
q 1 0 0 1 0 573.286011 cm
128.879 -77.141 m 100.961 -49.156 l 83.41 -80.688 l 104.391 -87.129 l 128.879
 -77.141 l S Q
q 1 0 0 1 0 573.286011 cm
467.777 -467.777 m 497.992 -508.59 l 529.074 -467.781 l 496.367 -457.387
 l 467.777 -467.777 l S Q
q 1 0 0 1 0 573.286011 cm
524.395 -334.668 m 493.23 -356.57 l 501.723 -389.461 l 531.148 -369.926
 l 524.395 -334.668 l S Q
q 1 0 0 1 0 573.286011 cm
523.707 -236.371 m 492.305 -256.352 l 496.051 -287 l 530.145 -287.332 l
 523.707 -236.371 l S Q
q 1 0 0 1 0 573.286011 cm
489.879 -208.168 m 484.621 -234.141 l 492.305 -256.352 l 523.707 -236.371
 l 489.879 -208.168 l S Q
q 1 0 0 1 0 573.286011 cm
100.961 -49.156 m 128.879 -77.141 l 153.715 -75.465 l 148.348 -41.336 l
 100.961 -49.156 l S Q
q 1 0 0 1 0 573.286011 cm
2 -53.754 m 2 -105.508 l 27.879 -105.508 l 30.434 -81.137 l 2 -53.754 l
 S Q
q 1 0 0 1 0 573.286011 cm
467.777 -312.52 m 467.777 -338.395 l 485.711 -338.023 l 493.898 -317.887
 l 467.777 -312.52 l S Q
q 1 0 0 1 0 573.286011 cm
260.766 -105.508 m 255.613 -79.602 l 233.383 -87.051 l 234.891 -105.508
 l 260.766 -105.508 l S Q
q 1 0 0 1 0 573.286011 cm
467.777 -338.395 m 467.777 -364.273 l 493.23 -356.57 l 485.711 -338.023
 l 467.777 -338.395 l S Q
q 1 0 0 1 0 573.286011 cm
338.395 -105.508 m 339.789 -87.266 l 318.785 -80.762 l 312.52 -105.508 
l 338.395 -105.508 l S Q
q 1 0 0 1 0 573.286011 cm
467.777 -416.027 m 467.777 -441.902 l 492.695 -435.645 l 486.891 -416.207
 l 467.777 -416.027 l S Q
q 1 0 0 1 0 573.286011 cm
157.262 -105.508 m 183.137 -105.508 l 184.898 -75.484 l 153.715 -75.465
 l 157.262 -105.508 l S Q
q 1 0 0 1 0 573.286011 cm
105.508 -105.508 m 104.391 -87.129 l 83.41 -80.688 l 79.629 -105.508 l 
105.508 -105.508 l S Q
q 1 0 0 1 0 573.286011 cm
79.629 -105.508 m 83.41 -80.688 l 53.812 -78.125 l 53.754 -105.508 l 79.629
 -105.508 l S Q
q 1 0 0 1 0 573.286011 cm
519.531 -571.285 m 529.922 -531.848 l 497.992 -508.59 l 492.812 -540.957
 l 519.531 -571.285 l S Q
q 1 0 0 1 0 573.286011 cm
467.777 -545.41 m 492.812 -540.957 l 497.992 -508.59 l 467.777 -519.531
 l 467.777 -545.41 l S Q
q 1 0 0 1 0 573.286011 cm
100.961 -49.156 m 51.523 -44.445 l 53.812 -78.125 l 83.41 -80.688 l 100.961
 -49.156 l S Q
q 1 0 0 1 0 573.286011 cm
53.754 -105.508 m 53.812 -78.125 l 30.434 -81.137 l 27.879 -105.508 l 53.754
 -105.508 l S Q
q 1 0 0 1 0 573.286011 cm
2 -53.754 m 30.434 -81.137 l 53.812 -78.125 l 51.523 -44.445 l 2 -53.754
 l S Q
q 1 0 0 1 0 573.286011 cm
492.812 -540.957 m 467.777 -545.41 l 467.777 -571.285 l 519.531 -571.285
 l 492.812 -540.957 l S Q
q 1 0 0 1 0 573.286011 cm
484.051 -146.582 m 502.73 -182.539 l 530.645 -187.23 l 528.816 -142.75 
l 484.051 -146.582 l S Q
q 1 0 0 1 0 573.286011 cm
496.051 -287 m 493.898 -317.887 l 524.395 -334.668 l 530.145 -287.332 l
 496.051 -287 l S Q
q 1 0 0 1 0 573.286011 cm
153.715 -75.465 m 184.898 -75.484 l 188.977 -41.133 l 148.348 -41.336 l
 153.715 -75.465 l S Q
q 1 0 0 1 0 573.286011 cm
444.027 -131.695 m 442.68 -156.492 l 464.023 -180.312 l 484.051 -146.582
 l 444.027 -131.695 l S Q
q 1 0 0 1 0 573.286011 cm
286.711 -77.262 m 318.785 -80.762 l 337.855 -49.223 l 286.559 -43.238 l
 286.711 -77.262 l S Q
Q Q
showpage
%%Trailer
end restore
%%EOF
